Mod2MultplLM
…
The echo: false option disables the printing of code (only output is displayed).

bike = bike %>% mutate(dteday = mdy(dteday))
bike = bike %>% mutate_if(is.character, as_factor)
bike = bike %>% mutate(hr = as_factor(hr))
bike

# A tibble: 17,379 × 16
   instant dteday     season mnth  hr    holiday   weekday workingday weathersit
     <dbl> <date>     <fct>  <fct> <fct> <fct>     <fct>   <fct>      <fct>     
 1       1 2011-01-01 Winter Jan   0     NotHolid… Saturd… NotWorkin… NoPrecip  
 2       2 2011-01-01 Winter Jan   1     NotHolid… Saturd… NotWorkin… NoPrecip  
 3       3 2011-01-01 Winter Jan   2     NotHolid… Saturd… NotWorkin… NoPrecip  
 4       4 2011-01-01 Winter Jan   3     NotHolid… Saturd… NotWorkin… NoPrecip  
 5       5 2011-01-01 Winter Jan   4     NotHolid… Saturd… NotWorkin… NoPrecip  
 6       6 2011-01-01 Winter Jan   5     NotHolid… Saturd… NotWorkin… Misty     
 7       7 2011-01-01 Winter Jan   6     NotHolid… Saturd… NotWorkin… NoPrecip  
 8       8 2011-01-01 Winter Jan   7     NotHolid… Saturd… NotWorkin… NoPrecip  
 9       9 2011-01-01 Winter Jan   8     NotHolid… Saturd… NotWorkin… NoPrecip  
10      10 2011-01-01 Winter Jan   9     NotHolid… Saturd… NotWorkin… NoPrecip  
# ℹ 17,369 more rows
# ℹ 7 more variables: temp <dbl>, atemp <dbl>, hum <dbl>, windspeed <dbl>,
#   casual <dbl>, registered <dbl>, count <dbl>
…
Residual standard error: 128.2 on 17355 degrees of freedom
Multiple R-squared:  0.5015,    Adjusted R-squared:  0.5008 
F-statistic: 759.1 on 23 and 17355 DF,  p-value: < 2.2e-16

predict(lm_fit, new_data = data.frame(hr = c("0","1","2","3","4","5","6","7","8","9","10","11","12","13","14","15","16","17","18","19","20","21","22","23")))

# A tibble: 24 × 1
    .pred
    <dbl>
 1  53.9 
 2  33.4 
 3  22.9 
 4  11.7 
 5   6.35
 6  19.9 
 7  76.0 
 8 212.  
 9 359.  
10 219.  
# ℹ 14 more rows
…
Residual standard error: 181.4 on 17378 degrees of freedom

Question 9: What is the adjusted R squared value? 0.1638

Question 10: Which of the two variables in the model are significant? temp only

Question 11: The model likely demonstrates which phenomenon? Multicollinearity

bike6 = bike %>% dplyr::select("count","season", "mnth", "hr", "holiday", "weekday", "workingday", "weathersit", "temp", "atemp", "hum", "windspeed")
bike6

# A tibble: 17,379 × 12
   count season mnth  hr    holiday    weekday workingday weathersit  temp atemp
   <dbl> <fct>  <fct> <fct> <fct>      <fct>   <fct>      <fct>      <dbl> <dbl>
 1    16 Winter Jan   0     NotHoliday Saturd… NotWorkin… NoPrecip    0.24 0.288
 2    40 Winter Jan   1     NotHoliday Saturd… NotWorkin… NoPrecip    0.22 0.273
 3    32 Winter Jan   2     NotHoliday Saturd… NotWorkin… NoPrecip    0.22 0.273
 4    13 Winter Jan   3     NotHoliday Saturd… NotWorkin… NoPrecip    0.24 0.288
 5     1 Winter Jan   4     NotHoliday Saturd… NotWorkin… NoPrecip    0.24 0.288
 6     1 Winter Jan   5     NotHoliday Saturd… NotWorkin… Misty       0.24 0.258
 7     2 Winter Jan   6     NotHoliday Saturd… NotWorkin… NoPrecip    0.22 0.273
 8     3 Winter Jan   7     NotHoliday Saturd… NotWorkin… NoPrecip    0.2  0.258
 9     8 Winter Jan   8     NotHoliday Saturd… NotWorkin… NoPrecip    0.24 0.288
10    14 Winter Jan   9     NotHoliday Saturd… NotWorkin… NoPrecip    0.32 0.348
# ℹ 17,369 more rows
# ℹ 2 more variables: hum <dbl>, windspeed <dbl>
…
