Mod3Assmnt1
…
bike = bike %>% mutate(dteday = mdy(dteday))
bike = bike %>% mutate_if(is.character, as_factor)
bike = bike %>% mutate(hr = as_factor(hr))
bike

# A tibble: 17,379 × 16
   instant dteday     season mnth  hr    holiday   weekday workingday weathersit
     <dbl> <date>     <fct>  <fct> <fct> <fct>     <fct>   <fct>      <fct>     
 1       1 2011-01-01 Winter Jan   0     NotHolid… Saturd… NotWorkin… NoPrecip  
 2       2 2011-01-01 Winter Jan   1     NotHolid… Saturd… NotWorkin… NoPrecip  
 3       3 2011-01-01 Winter Jan   2     NotHolid… Saturd… NotWorkin… NoPrecip  
 4       4 2011-01-01 Winter Jan   3     NotHolid… Saturd… NotWorkin… NoPrecip  
 5       5 2011-01-01 Winter Jan   4     NotHolid… Saturd… NotWorkin… NoPrecip  
 6       6 2011-01-01 Winter Jan   5     NotHolid… Saturd… NotWorkin… Misty     
 7       7 2011-01-01 Winter Jan   6     NotHolid… Saturd… NotWorkin… NoPrecip  
 8       8 2011-01-01 Winter Jan   7     NotHolid… Saturd… NotWorkin… NoPrecip  
 9       9 2011-01-01 Winter Jan   8     NotHolid… Saturd… NotWorkin… NoPrecip  
10      10 2011-01-01 Winter Jan   9     NotHolid… Saturd… NotWorkin… NoPrecip  
# ℹ 17,369 more rows
# ℹ 7 more variables: temp <dbl>, atemp <dbl>, hum <dbl>, windspeed <dbl>,
#   casual <dbl>, registered <dbl>, count <dbl>
The echo: false option disables the printing of code (only output is displayed).

set.seed(1234)
bike_split = initial_split(bike, prop = 0.70, strata = count)
train = training(bike_split)
test = testing(bike_split)

Question 1: How many rows of data are in the training set? 12163

Question 2: Stratifying the split by “count” variable serves what purpose? Answer A

bike2 = train %>% dplyr::select("count","season", "mnth", "hr", "holiday", "weekday", "weathersit", "temp")
bike2

# A tibble: 12,163 × 8
   count season mnth  hr    holiday    weekday  weathersit   temp
   <dbl> <fct>  <fct> <fct> <fct>      <fct>    <fct>       <dbl>
 1    40 Winter Jan   1     NotHoliday Saturday NoPrecip     0.22
 2    32 Winter Jan   2     NotHoliday Saturday NoPrecip     0.22
 3    13 Winter Jan   3     NotHoliday Saturday NoPrecip     0.24
 4     1 Winter Jan   4     NotHoliday Saturday NoPrecip     0.24
 5     1 Winter Jan   5     NotHoliday Saturday Misty        0.24
 6     2 Winter Jan   6     NotHoliday Saturday NoPrecip     0.22
 7     8 Winter Jan   8     NotHoliday Saturday NoPrecip     0.24
 8    14 Winter Jan   9     NotHoliday Saturday NoPrecip     0.32
 9    36 Winter Jan   10    NotHoliday Saturday NoPrecip     0.38
10    35 Winter Jan   18    NotHoliday Saturday LightPrecip  0.42
# ℹ 12,153 more rows
…
Residual standard error: 111.8 on 12114 degrees of freedom
Multiple R-squared:  0.6224,    Adjusted R-squared:  0.6209 
F-statistic: 416.1 on 48 and 12114 DF,  p-value: < 2.2e-16

Question 3: Adjusted R squared value of Train? 0.6209

predict_train = predict(lm_fit, new_data = bike2)
predict_train

# A tibble: 12,163 × 1
   .pred
   <dbl>
 1 -37.9
 2 -46.2
 3 -52.7
 4 -52.5
 5 -58.3
 6  14.7
 7 294. 
 8 176. 
 9 136. 
10 292. 
# ℹ 12,153 more rows
…
