Untitled
…
parole = parole %>% mutate(male = as_factor(male), race = as_factor(race), state = as_factor(state), crime = as_factor(crime), multiple.offenses = as_factor(multiple.offenses), violator = as_factor(violator))
parole

# A tibble: 675 × 9
   male  race    age state time.served max.sentence multiple.offenses crime
   <fct> <fct> <dbl> <fct>       <dbl>        <dbl> <fct>             <fct>
 1 1     1      33.2 1             5.5           18 0                 4    
 2 0     1      39.7 1             5.4           12 0                 3    
 3 1     2      29.5 1             5.6           12 0                 3    
 4 1     1      22.4 1             5.7           18 0                 1    
 5 1     2      21.6 1             5.4           12 0                 1    
 6 1     2      46.7 1             6             18 0                 4    
 7 1     1      31   1             6             18 0                 3    
 8 0     1      24.6 1             4.8           12 0                 1    
 9 0     1      32.6 1             4.5           13 0                 3    
10 1     2      29.1 1             4.7           12 0                 2    
# ℹ 665 more rows
# ℹ 1 more variable: violator <fct>
…
    Null deviance: 335.47  on 470  degrees of freedom
Residual deviance: 270.95  on 467  degrees of freedom
AIC: 278.95

Number of Fisher Scoring iterations: 6

Question 6: Which state is base level summary? other

Question 7: AIC? 278.95

parole2 = train %>% dplyr::select("violator","state", "multiple.offenses", "race")
parole2

# A tibble: 471 × 4
   violator                                      state   multiple.offenses race 
   <fct>                                         <fct>   <fct>             <fct>
 1 parolee complete the parole without violation Any ot… otherwise         white
 2 parolee complete the parole without violation Any ot… otherwise         othe…
 3 parolee complete the parole without violation Any ot… otherwise         othe…
 4 parolee complete the parole without violation Any ot… otherwise         white
 5 parolee complete the parole without violation Any ot… otherwise         white
 6 parolee complete the parole without violation Any ot… otherwise         othe…
 7 parolee complete the parole without violation Any ot… otherwise         white
 8 parolee complete the parole without violation Any ot… otherwise         white
 9 parolee complete the parole without violation Any ot… otherwise         white
10 parolee complete the parole without violation Any ot… otherwise         white
# ℹ 461 more rows
…
